question-1.utf8.md
…
##    max  min diff
## 1 28.3 17.0 11.3
## 2 -0.9 -8.6  7.7
## 3 29.2 25.6  3.6

means <- all_weather_single_dataframe %>%
    group_by(weather_station_name) %>%
    dplyr::summarize(
      mean = mean(temp_max_degrees_c, na.rm=TRUE),
      sd = sd(temp_max_degrees_c, na.rm=TRUE)
    )

means

## # A tibble: 36 x 3
##    weather_station_name  mean    sd
##    <fct>                <dbl> <dbl>
##  1 aberporth             12.4  4.12
##  2 armagh                12.9  4.62
##  3 ballypatrick          11.4  3.96
##  4 bradford              12.3  5.15
##  5 braemar               10.5  5.19
##  6 camborne              13.4  3.80
##  7 cambridge             14.3  5.83
##  8 cardiff               14.5  5.02
##  9 chivenor              14.5  4.40
## 10 cwmystwyth            11.7  4.60
## #  with 26 more rows
…
